{
  "openapi": "3.0.3",
  "info": {
    "title": "API GAMEKU",
    "description": "API collection untuk API gameku",
    "version": "1.0"
  },
  "servers": [
    {
      "url": "http://localhost:3030"
    }
  ],
  "paths": {
    "/register": {
      "post": {
        "tags": [
          "user"
        ],
        "summary": "API untuk registrasi",
        "description": "Deskripsi registrasi",
        "requestBody": {
          "content": {
            "application/json": {
              "schema": {
                "type": "object",
                "properties": {
                  "username": {
                    "type": "string",
                    "example": "dedy"
                  },
                  "email": {
                    "type": "string",
                    "example": "dedy@gmail.com"
                  },
                  "paassword": {
                    "type": "string",
                    "example": "dedy123"
                  }
                }
              }
            }
          }
        },
        "responses": {
          "200": {
            "description": "Registrasi sukses"
          },
          "400": {
            "description": "request is failed"
          }
        }
      }
    },
    "/login": {
      "post": {
        "tags": [
          "user"
        ],
        "summary": "API untuk registrasi",
        "description": "Deskripsi registrasi",
        "requestBody": {
          "content": {
            "application/json": {
              "schema": {
                "type": "object",
                "properties": {
                  "username": {
                    "type": "string",
                    "example": "dedy"
                  },
                  "email": {
                    "type": "string",
                    "example": "dedy@gmail.com"
                  },
                  "paassword": {
                    "type": "string",
                    "example": "dedy123"
                  }
                }
              }
            }
          }
        },
        "responses": {
          "200": {
            "description": "Registrasi sukses",
            "content": {
              "application/json": {
                "schema": {
                  "type": "object",
                  "properties": {
                    "accessToken": {
                      "type": "string",
                      "example": " the token is here"
                    }
                  }
                }
              }
            }
          },
          "400": {
            "description": "request is failed"
          }
        }
      }
    },
    "/user": {
      "get": {
        "tags": [
          "user"
        ],
        "summary": "API untuk dapatkan semua user",
        "security": [
          {
            "bearerAuth": []
          }
        ],
        "responses": {
          "200": {
            "description": "GET  user sukses"
          }
        }
      }
    },
    "/updateUserBio/{userId}": {
      "put": {
        "tags": [
          "user"
        ],
        "summary": "API untuk update user biodata",
        "description": "update user biodata",
        "parameters": [
          {
            "name": "userId",
            "in": "path",
            "schema": {
              "type": "string"
            },
            "required": true,
            "description": "masukkan id parameter untuk mengupdate biodata user"
          }
        ],
        "security": [
          {
            "bearerAuth": []
          }
        ],
        "requestBody": {
          "content": {
            "application/json": {
              "schema": {
                "type": "object",
                "properties": {
                  "fullname": {
                    "type": "string",
                    "example": "bengawan-solo"
                  },
                  "phoneNumber": {
                    "type": "string",
                    "example": "08956473888"
                  },
                  "address": {
                    "type": "string",
                    "example": "place/country"
                  }
                }
              }
            }
          }
        },
        "responses": {
          "200": {
            "description": "Biodata sudah dibuat"
          }
        }
      }
    },
    "/createRoom": {
      "post": {
        "tags": [
          "user game"
        ],
        "summary": "API membuat room permainan",
        "description": "Membuat room permaianan antara 2 player",
        "requestBody": {
          "content": {
            "application/json": {
              "schema": {
                "type": "object",
                "properties": {
                  "namaRoom": {
                    "type": "string",
                    "example": "ini room satu"
                  },
                  "playerOneChoice": {
                    "type": "string",
                    "example": "batu"
                  }
                }
              }
            }
          }
        },
        "security": [
          {
            "bearerAuth": []
          }
        ],
        "responses": {
          "200": {
            "description": "sukses mendapatkan room"
          }
        }
      }
    },
    "/allRooms": {
      "get": {
        "tags": [
          "user game"
        ],
        "summary": "API mendapatkan semua room",
        "description": "menampilkan semua room",
        "security": [
          {
            "bearerAuth": []
          }
        ],
        "responses": {
          "200": {
            "description": "berhasil mendapatkan semua room"
          }
        }
      }
    },
    "/singleRoom/{id}": {
      "get": {
        "tags": [
          "user game"
        ],
        "summary": "API mendapatkan informasi salah satu room",
        "description": "melihat informasi room bedasarkan id room",
        "parameters": [
          {
            "name": "id",
            "in": "path",
            "schema": {
              "type": "string"
            },
            "required": true,
            "description": "id di parameter menentukan id room"
          }
        ],
        "security": [
          {
            "bearerAuth": []
          }
        ],
        "responses": {
          "200": {
            "description": "Menerima room single detail"
          }
        }
      }
    },
    "/joinRoom/{id}": {
      "put": {
        "tags": [
          "user game"
        ],
        "summary": "API agar lawan dapat join ke room yang sudah dibuat",
        "description": "API UNTUK JOIN ROOM",
        "parameters": [
          {
            "name": "id",
            "in": "path",
            "schema": {
              "type": "string"
            },
            "required": true,
            "description": "Masukan ID room untuk join ke room tersebut"
          }
        ],
        "security": [
          {
            "bearerAuth": []
          }
        ],
        "requestBody": {
          "content": {
            "application/json": {
              "schema": {
                "type": "object",
                "properties": {
                  "playerTwoChoice": {
                    "type": "string",
                    "example": "gunting"
                  }
                }
              }
            }
          }
        },
        "responses": {
          "200": {
            "description": "room berhasil dibuat"
          }
        }
      }
    },
    "/pvpHistory": {
      "get": {
        "tags": [
          "user game"
        ],
        "summary": "API untuk menampilkan rekam permainan user",
        "description": "Menampilkan history permainan user yang login",
        "security": [
          {
            "bearerAuth": []
          }
        ],
        "responses": {
          "200": {
            "description": "room berhasil dibuat"
          }
        }
      }
    },
    "/vsCom": {
      "post": {
        "tags": [
          "user game"
        ],
        "summary": "API untuk player melawan computer",
        "description": "API yang berguna untuk membuat room baru agar anda dapat melawan computer",
        "requestBody": {
          "content": {
            "application/json": {
              "schema": {
                "type": "object",
                "properties": {
                  "player1_choice": {
                    "type": "string",
                    "example": "gunting"
                  }
                }
              }
            }
          }
        },
        "security": [
          {
            "bearerAuth": []
          }
        ],
        "responses": {
          "200": {
            "description": "Berhasil membuat room melawan computer"
          }
        }
      }
    }
  },
  "components": {
    "securitySchemes": {
      "bearerAuth": {
        "type": "http",
        "scheme": "bearer",
        "bearerFormat": "JWT"
      }
    }
  }
}